Model
…
model_aug %>% 
  filter(.hat > leverage_threshold)

## # A tibble: 60 x 11
##    unemployment_ch retail_avg grocery_avg workplaces_avg .fitted .resid
##               <dbl>      <dbl>       <dbl>          <dbl>   <dbl>  <dbl>
##  1             2.20     -17.3        15.0           -25.8   2.80  -0.602
##  2             2.4        5.27       -1.58          -32.7   2.04   0.363
##  3             1.30      19.0        16.5           -19.7   0.800  0.500
##  4             3.7       -5.69       18.6           -15.7   1.78   1.92 
##  5             5.1      -27.6       -10.7           -40.1   5.31  -0.215
##  6             5.1      -22.8        13.3           -24.4   3.12   1.98 
##  7            -0.6       -7.13      -13.4           -19.8   2.84  -3.44 
##  8             4.9       10.8        18.6           -23.2   1.31   3.59 
##  9             3         -7.47       18.0           -17.9   1.95   1.05 
## 10             8.00     -25.0        -9.79          -40.0   5.03   2.97 
## #  with 50 more rows, and 5 more variables: .std.resid <dbl>, .hat <dbl>,
## #   .sigma <dbl>, .cooksd <dbl>, obs_num <int>
…
